cordic/Verilog/cordic_sine_tb.vcd
$date
	Fri Nov 14 08:39:36 2025
$end
$version
	Icarus Verilog
$end
$timescale
	1s
$end
$scope module cordic_sine_tb $end
$var wire 1 ! valid $end
$var wire 32 " sine_out [31:0] $end
$var parameter 32 # CLK_PERIOD $end
$var parameter 32 $ FRAC $end
$var parameter 32 % PI2 $end
$var reg 32 & angle_step [31:0] $end
$var reg 1 ' clk $end
$var reg 32 ( current_angle [31:0] $end
$var reg 32 ) input_angle [31:0] $end
$var reg 1 * rst_n $end
$var reg 1 + start $end
$var real 1 , angle_radians $end
$var real 1 - computed_sine $end
$var real 1 . error $end
$var integer 32 / error_count [31:0] $end
$var real 1 0 expected_sine $end
$var real 1 1 max_error $end
$var integer 32 2 test_count [31:0] $end
$scope function abs_real $end
$var real 1 3 val $end
$upscope $end
$scope function fixed_to_real $end
$var reg 32 4 fixed_val [31:0] $end
$upscope $end
$scope function real_to_fixed $end
$var real 1 5 real_val $end
$upscope $end
$scope module dut $end
$var wire 1 ' clk $end
$var wire 32 6 input_angle [31:0] $end
$var wire 1 * rst_n $end
$var wire 1 + start $end
$var parameter 32 7 AG_CONST $end
$var parameter 32 8 FRAC $end
$var parameter 32 9 PI $end
$var parameter 32 : PI_OVER_2 $end
$var parameter 32 ; THREE_PI_OVER_2 $end
$var parameter 32 < TWO_PI $end
$var reg 32 = X [31:0] $end
$var reg 32 > Y [31:0] $end
$var reg 32 ? angle_q0 [31:0] $end
$var reg 32 @ angle_target [31:0] $end
$var reg 2 A next_state [1:0] $end
$var reg 2 B quad [1:0] $end
$var reg 32 C sine_out [31:0] $end
$var reg 2 D state [1:0] $end
$var reg 5 E step [4:0] $end
$var reg 1 ! valid $end
$scope function angle_adj $end
$upscope $end
$scope function quadrant $end
$upscope $end
$upscope $end
$scope begin $ivl_for_loop0 $end
$var integer 32 F i [31:0] $end
$upscope $end
$upscope $end
$enddefinitions $end
$comment Show the parameter values. $end
$dumpall
b110010010000111111 <
b100101101100110000 ;
b1100100100001111 :
b11001001000100000 9
b1111 8
b100110110111010 7
b1100100100001111 %
b1111 $
b1010 #
$end
#0
$dumpvars
b0 F
b0 E
b0 D
b0 C
bx B
b0 A
bx @
bx ?
bx >
bx =
b0 6
r0 5
bx 4
r0 3
b0 2
r0 1
r0 0
b0 /
r0 .
r0 -
r0 ,
0+
0*
b0 )
bx (
0'
b110010010000 &
b0 "
0!
$end
#5
1'
#10
0'
#15
1'
#20
0'
1*
#25
1'
#30
0'
#35
1'
#40
b1 A
0'
1+
b0 (
#45
b1 D
b1 A
0+
1'
#50
0'
#55
b1 E
1'
#60
0'
#65
b10 E
1'
#70
0'
#75
b11 E
1'
#80
0'
#85
b100 E
1'
#90
0'
#95
b101 E
1'
#100
0'
#105
b110 E
1'
#110
0'
#115
b111 E
1'
#120
0'
#125
b1000 E
1'
#130
0'
#135
b1001 E
1'
#140
0'
#145
b1010 E
1'
#150
0'
#155
b1011 E
1'
#160
0'
#165
b1100 E
1'
#170
0'
#175
b1101 E
1'
#180
0'
#185
b1110 E
1'
#190
0'
#195
b1111 E
1'
#200
0'
#205
b10 A
b10000 E
1'
#210
0'
#215
b0 A
b10001 E
b10 D
1'
#220
0'
#225
bx "
bx C
1!
b0 D
1'
#230
0'
#235
0!
b1 2
bx 4
1'
#240
0'
#245
1'
#250
0'
#255
1'
#260
0'
#265
b0 E
b0 @
b0 >
b100110110111010 =
b0 B
b110010010000 ?
b1 A
1+
b110010010000 )
b110010010000 6
b110010010000 (
b1 F
1'
#270
0'
#275
b1 D
b1 A
0+
1'
#280
0'
#285
b1 E
b110010010001000 @
b100110110111010 >
1'
#290
0'
#295
b10 E
b10100100101111 @
b10011011011101 >
b111010010010111 =
1'
#300
0'
#305
b11 E
b100111010100 @
b100110111000 >
b111111001001110 =
1'
#310
0'
#315
b100 E
b1100110111111 @
b1100110000001 >
b111110100010111 =
1'
#320
0'
#325
b101 E
b1000111000010 @
b1000110110000 >
b111111010101111 =
1'
#330
0'
#335
b110 E
b110111000010 @
b110110111011 >
b111111100111100 =
1'
#340
0'
#345
b111 E
b101111000010 @
b101110111111 >
b111111101110010 =
1'
#350
0'
#355
b1000 E
b110011000010 @
b110010111101 >
b111111101011011 =
1'
#360
0'
#365
b1001 E
b110001000010 @
b110000111110 >
b111111101100111 =
1'
#370
0'
#375
b1010 E
b110010000010 @
b110001111101 >
b111111101100001 =
1'
#380
0'
#385
b1011 E
b110010100010 @
b110010011100 >
b111111101011110 =
1'
#390
0'
#395
b1100 E
b110010010010 @
b110010001101 >
b111111101011111 =
1'
#400
0'
#405
b1101 E
b110010001010 @
b110010000110 >
1'
#410
0'
#415
b1110 E
b110010001110 @
b110010001001 >
1'
#420
0'
#425
b1111 E
b110010010000 @
b110010001010 >
1'
#430
0'
#435
b10 A
b10000 E
b110010001111 @
1'
#440
0'
#445
b0 A
b10001 E
bx @
b10 D
1'
#450
0'
#455
b110010001010 "
b110010001010 C
1!
b0 D
1'
#460
0'
#465
0!
b10 2
r2.56209387116263e-05 1
r-2.56209387116263e-05 3
r-2.56209387116263e-05 .
r0.09796142578125 -
r0.09798704671996163 0
r0.09814453125 ,
b110010001010 4
1'
#470
0'
#475
1'
#480
0'
#485
1'
#490
0'
#495
b0 E
b0 @
b0 >
b100110110111010 =
b1100100100000 ?
b1 A
1+
b1100100100000 )
b1100100100000 6
b1100100100000 (
b10 F
1'
#500
0'
#505
b1 D
b1 A
0+
1'
#510
0'
#515
b1 E
b110010010001000 @
b100110110111010 >
1'
#520
0'
#525
b10 E
b10100100101111 @
b10011011011101 >
b111010010010111 =
1'
#530
0'
#535
b11 E
b100111010100 @
b100110111000 >
b111111001001110 =
1'
#540
0'
#545
b100 E
b1100110111111 @
b1100110000001 >
b111110100010111 =
1'
#550
0'
#555
b101 E
b1000111000010 @
b1000110110000 >
b111111010101111 =
1'
#560
0'
#565
b110 E
b1010111000010 @
b1010110100101 >
b111111000100010 =
1'
#570
0'
#575
b111 E
b1011111000010 @
b1011110011101 >
b111110111001100 =
1'
#580
0'
#585
b1000 E
b1100011000010 @
b1100010011000 >
b111110110011101 =
1'
#590
0'
#595
b1001 E
b1100101000010 @
b1100100010101 >
b111110110000101 =
1'
#600
0'
#605
b1010 E
b1100100000010 @
b1100011010111 >
b111110110010001 =
1'
#610
0'
#615
b1011 E
b1100100100010 @
b1100011110110 >
b111110110001011 =
1'
#620
0'
#625
b1100 E
b1100100010010 @
b1100011100111 >
b111110110001110 =
1'
#630
0'
#635
b1101 E
b1100100011010 @
b1100011101110 >
b111110110001101 =
1'
#640
0'
#645
b1110 E
b1100100011110 @
b1100011110001 >
1'
#650
0'
#655
b1111 E
b1100100100000 @
b1100011110010 >
1'
#660
0'
#665
b10 A
b10000 E
b1100100011111 @
1'
#670
0'
#675
b0 A
b10001 E
bx @
b10 D
1'
#680
0'
#685
b1100011110010 "
b1100011110010 C
1!
b0 D
1'
#690
0'
#695
0!
b11 2
r0.0001457514782928493 1
r-0.0001457514782928493 3
r-0.0001457514782928493 .
r0.19488525390625 -
r0.1950310053845428 0
r0.1962890625 ,
b1100011110010 4
1'
#700
0'
#705
1'
#710
0'
#715
1'
#720
0'
#725
b0 E
b0 @
b0 >
b100110110111010 =
b10010110110000 ?
b1 A
1+
b10010110110000 )
b10010110110000 6
b10010110110000 (
b11 F
1'
#730
0'
#735
b1 D
b1 A
0+
1'
#740
0'
#745
b1 E
b110010010001000 @
b100110110111010 >
1'
#750
0'
#755
b10 E
b10100100101111 @
b10011011011101 >
b111010010010111 =
1'
#760
0'
#765
b11 E
b100111010100 @
b100110111000 >
b111111001001110 =
1'
#770
0'
#775
b100 E
b1100110111111 @
b1100110000001 >
b111110100010111 =
1'
#780
0'
#785
b101 E
b10000110111100 @
b10000101010010 >
b111101101111111 =
1'
#790
0'
#795
b110 E
b10010110111100 @
b10010100101101 >
b111101001110101 =
1'
#800
0'
#805
b111 E
b10001110111100 @
b10001101000100 >
b111101100001001 =
1'
#810
0'
#815
b1000 E
b10010010111100 @
b10010000111010 >
b111101011000011 =
1'
#820
0'
#825
b1001 E
b10010100111100 @
b10010010110100 >
b111101010011111 =
1'
#830
0'
#835
b1010 E
b10010101111100 @
b10010011110001 >
b111101010001101 =
1'
#840
0'
#845
b1011 E
b10010110011100 @
b10010100001111 >
b111101010000100 =
1'
#850
0'
#855
b1100 E
b10010110101100 @
b10010100011110 >
b111101010000000 =
1'
#860
0'
#865
b1101 E
b10010110110100 @
b10010100100101 >
b111101001111110 =
1'
#870
0'
#875
b1110 E
b10010110110000 @
b10010100100010 >
b111101001111111 =
1'
#880
0'
#885
b1111 E
b10010110101110 @
b10010100100001 >
1'
#890
0'
#895
b10 A
b10000 E
b10010110101111 @
1'
#900
0'
#905
b0 A
b10001 E
bx @
b10 D
1'
#910
0'
#915
b10010100100001 "
b10010100100001 C
1!
b0 D
1'
#920
0'
#925
0!
b100 2
r-0.0001282847240683949 3
r-0.0001282847240683949 .
r0.290069580078125 -
r0.2901978648021934 0
r0.29443359375 ,
b10010100100001 4
1'
#930
0'
#935
1'
#940
0'
#945
1'
#950
0'
#955
b0 E
b0 @
b0 >
b100110110111010 =
b11001001000000 ?
b1 A
1+
b11001001000000 )
b11001001000000 6
b11001001000000 (
b100 F
1'
#960
0'
#965
b1 D
b1 A
0+
1'
#970
0'
#975
b1 E
b110010010001000 @
b100110110111010 >
1'
#980
0'
#985
b10 E
b10100100101111 @
b10011011011101 >
b111010010010111 =
1'
#990
0'
#995
b11 E
b100100010001010 @
b100010000000010 >
b110101011100000 =
1'
#1000
0'
#1005
b100 E
b11100010011111 @
b11011010100110 >
b111001101100000 =
1'
#1010
0'
#1015
b101 E
b11000010100010 @
b10111101110000 >
b111011011001010 =
1'
#1020
0'
#1025
b110 E
b11010010100010 @
b11001100100110 >
b111010101001111 =
1'
#1030
0'
#1035
b111 E
b11001010100010 @
b11000101010001 >
b111011000011011 =
1'
#1040
0'
#1045
b1000 E
b11000110100010 @
b11000001100101 >
b111011001111101 =
1'
#1050
0'
#1055
b1001 E
b11001000100010 @
b11000011011011 >
b111011001001101 =
1'
#1060
0'
#1065
b1010 E
b11001001100010 @
b11000100010110 >
b111011000110101 =
1'
#1070
0'
#1075
b1011 E
b11001001000010 @
b11000011111001 >
b111011001000001 =
1'
#1080
0'
#1085
b1100 E
b11001000110010 @
b11000011101011 >
b111011001000111 =
1'
#1090
0'
#1095
b1101 E
b11001000111010 @
b11000011110010 >
b111011001000100 =
1'
#1100
0'
#1105
b1110 E
b11001000111110 @
b11000011110101 >
b111011001000011 =
1'
#1110
0'
#1115
b1111 E
b11001001000000 @
b11000011110110 >
1'
#1120
0'
#1125
b10 A
b10000 E
b11001000111111 @
1'
#1130
0'
#1135
b0 A
b10001 E
bx @
b10 D
1'
#1140
0'
#1145
b11000011110110 "
b11000011110110 C
1!
b0 D
1'
#1150
0'
#1155
0!
b101 2
r-6.43559289115192e-05 3
r-6.43559289115192e-05 .
r0.38250732421875 -
r0.3825716801476615 0
r0.392578125 ,
b11000011110110 4
1'
#1160
0'
#1165
1'
#1170
0'
#1175
1'
#1180
0'
#1185
b0 E
b0 @
b0 >
b100110110111010 =
b11111011010000 ?
b1 A
1+
b11111011010000 )
b11111011010000 6
b11111011010000 (
b101 F
1'
#1190
0'
#1195
b1 D
b1 A
0+
1'
#1200
0'
#1205
b1 E
b110010010001000 @
b100110110111010 >
1'
#1210
0'
#1215
b10 E
b10100100101111 @
b10011011011101 >
b111010010010111 =
1'
#1220
0'
#1225
b11 E
b100100010001010 @
b100010000000010 >
b110101011100000 =
1'
#1230
0'
#1235
b100 E
b11100010011111 @
b11011010100110 >
b111001101100000 =
1'
#1240
0'
#1245
b101 E
b100000010011100 @
b11110111011100 >
b110111111110110 =
1'
#1250
0'
#1255
b110 E
b11110010011100 @
b11101001011101 >
b111000111100100 =
1'
#1260
0'
#1265
b111 E
b11111010011100 @
b11110000100100 >
b111000011111011 =
1'
#1270
0'
#1275
b1000 E
b11111110011100 @
b11110100000101 >
b111000010000011 =
1'
#1280
0'
#1285
b1001 E
b11111100011100 @
b11110010010101 >
b111000011000000 =
1'
#1290
0'
#1295
b1010 E
b11111011011100 @
b11110001011101 >
b111000011011110 =
1'
#1300
0'
#1305
b1011 E
b11111010111100 @
b11110001000001 >
b111000011101101 =
1'
#1310
0'
#1315
b1100 E
b11111011001100 @
b11110001001111 >
b111000011100110 =
1'
#1320
0'
#1325
b1101 E
b11111011010100 @
b11110001010110 >
b111000011100011 =
1'
#1330
0'
#1335
b1110 E
b11111011010000 @
b11110001010011 >
b111000011100100 =
1'
#1340
0'
#1345
b1111 E
b11111011001110 @
b11110001010010 >
1'
#1350
0'
#1355
b10 A
b10000 E
b11111011001111 @
1'
#1360
0'
#1365
b0 A
b10001 E
bx @
b10 D
1'
#1370
0'
#1375
b11110001010010 "
b11110001010010 C
1!
b0 D
1'
#1380
0'
#1385
0!
b110 2
r-1.094717630795161e-05 3
r-1.094717630795161e-05 .
r0.47125244140625 -
r0.471263388582558 0
r0.49072265625 ,
b11110001010010 4
1'
#1390
0'
#1395
1'
#1400
0'
#1405
1'
#1410
0'
#1415
b0 E
b0 @
b0 >
b100110110111010 =
b100101101100000 ?
b1 A
1+
b100101101100000 )
b100101101100000 6
b100101101100000 (
b110 F
1'
#1420
0'
#1425
b1 D
b1 A
0+
1'
#1430
0'
#1435
b1 E
b110010010001000 @
b100110110111010 >
1'
#1440
0'
#1445
b10 E
b10100100101111 @
b10011011011101 >
b111010010010111 =
1'
#1450
0'
#1455
b11 E
b100100010001010 @
b100010000000010 >
b110101011100000 =
1'
#1460
0'
#1465
b100 E
b101100001110101 @
b101000101011110 >
b110001001100000 =
1'
#1470
0'
#1475
b101 E
b101000001111000 @
b100101100111000 >
b110011101110101 =
1'
#1480
0'
#1485
b110 E
b100110001111000 @
b100011111111101 >
b110100111001110 =
1'
#1490
0'
#1495
b111 E
b100101001111000 @
b100011001010110 >
b110101011101101 =
1'
#1500
0'
#1505
b1000 E
b100101101111000 @
b100011100101011 >
b110101001100001 =
1'
#1510
0'
#1515
b1001 E
b100101011111000 @
b100011011000001 >
b110101010101000 =
1'
#1520
0'
#1525
b1010 E
b100101100111000 @
b100011011110110 >
b110101010000101 =
1'
#1530
0'
#1535
b1011 E
b100101101011000 @
b100011100010000 >
b110101001110100 =
1'
#1540
0'
#1545
b1100 E
b100101101101000 @
b100011100011101 >
b110101001101100 =
1'
#1550
0'
#1555
b1101 E
b100101101100000 @
b100011100010111 >
b110101001110000 =
1'
#1560
0'
#1565
b1110 E
b100101101011100 @
b100011100010100 >
b110101001110010 =
1'
#1570
0'
#1575
b1111 E
b100101101011110 @
b100011100010101 >
b110101001110001 =
1'
#1580
0'
#1585
b10 A
b10000 E
b100101101011111 @
1'
#1590
0'
#1595
b0 A
b10001 E
bx @
b10 D
1'
#1600
0'
#1605
b100011100010101 "
b100011100010101 C
1!
b0 D
1'
#1610
0'
#1615
0!
b111 2
r-9.099700639614294e-05 3
r-9.099700639614294e-05 .
r0.555328369140625 -
r0.5554193661470211 0
r0.5888671875 ,
b100011100010101 4
1'
#1620
0'
#1625
1'
#1630
0'
#1635
1'
#1640
0'
#1645
b0 E
b0 @
b0 >
b100110110111010 =
b101011111110000 ?
b1 A
1+
b101011111110000 )
b101011111110000 6
b101011111110000 (
b111 F
1'
#1650
0'
#1655
b1 D
b1 A
0+
1'
#1660
0'
#1665
b1 E
b110010010001000 @
b100110110111010 >
1'
#1670
0'
#1675
b10 E
b10100100101111 @
b10011011011101 >
b111010010010111 =
1'
#1680
0'
#1685
b11 E
b100100010001010 @
b100010000000010 >
b110101011100000 =
1'
#1690
0'
#1695
b100 E
b101100001110101 @
b101000101011110 >
b110001001100000 =
1'
#1700
0'
#1705
b101 E
b101000001111000 @
b100101100111000 >
b110011101110101 =
1'
#1710
0'
#1715
b110 E
b101010001111000 @
b100111001110011 >
b110010100011100 =
1'
#1720
0'
#1725
b111 E
b101011001111000 @
b101000000000111 >
b110001111100011 =
1'
#1730
0'
#1735
b1000 E
b101011101111000 @
b101000011001110 >
b110001101000011 =
1'
#1740
0'
#1745
b1001 E
b101011111111000 @
b101000100110001 >
b110001011110011 =
1'
#1750
0'
#1755
b1010 E
b101011110111000 @
b101000100000000 >
b110001100011011 =
1'
#1760
0'
#1765
b1011 E
b101011111011000 @
b101000100011000 >
b110001100000111 =
1'
#1770
0'
#1775
b1100 E
b101011111101000 @
b101000100100100 >
b110001011111101 =
1'
#1780
0'
#1785
b1101 E
b101011111110000 @
b101000100101010 >
b110001011111000 =
1'
#1790
0'
#1795
b1110 E
b101011111101100 @
b101000100100111 >
b110001011111010 =
1'
#1800
0'
#1805
b1111 E
b101011111101110 @
b101000100101000 >
b110001011111001 =
1'
#1810
0'
#1815
b10 A
b10000 E
b101011111101111 @
1'
#1820
0'
#1825
b0 A
b10001 E
bx @
b10 D
1'
#1830
0'
#1835
b101000100101000 "
b101000100101000 C
1!
b0 D
1'
#1840
0'
#1845
0!
b1000 2
r0.0001964404406555875 1
r-0.0001964404406555875 3
r-0.0001964404406555875 .
r0.634033203125 -
r0.6342296435656556 0
r0.68701171875 ,
b101000100101000 4
1'
#1850
0'
#1855
1'
#1860
0'
#1865
1'
#1870
0'
#1875
b0 E
b0 @
b0 >
b100110110111010 =
b110010010000000 ?
b1 A
1+
b110010010000000 )
b110010010000000 6
b110010010000000 (
b1000 F
1'
#1880
0'
#1885
b1 D
b1 A
0+
1'
#1890
0'
#1895
b1 E
b110010010001000 @
b100110110111010 >
1'
#1900
0'
#1905
b10 E
b10100100101111 @
b10011011011101 >
b111010010010111 =
1'
#1910
0'
#1915
b11 E
b100100010001010 @
b100010000000010 >
b110101011100000 =
1'
#1920
0'
#1925
b100 E
b101100001110101 @
b101000101011110 >
b110001001100000 =
1'
#1930
0'
#1935
b101 E
b110000001110010 @
b101011110000100 >
b101110101001011 =
1'
#1940
0'
#1945
b110 E
b110010001110010 @
b101101001101110 >
b101101010001111 =
1'
#1950
0'
#1955
b111 E
b110011001110010 @
b101101111011000 >
b101100100100110 =
1'
#1960
0'
#1965
b1000 E
b110010101110010 @
b101101100100110 >
b101100111011101 =
1'
#1970
0'
#1975
b1001 E
b110010011110010 @
b101101011001101 >
b101101000111000 =
1'
#1980
0'
#1985
b1010 E
b110010010110010 @
b101101010100000 >
b101101001100101 =
1'
#1990
0'
#1995
b1011 E
b110010010010010 @
b101101010001010 >
b101101001111011 =
1'
#2000
0'
#2005
b1100 E
b110010010000010 @
b101101001111111 >
b101101010000110 =
1'
#2010
0'
#2015
b1101 E
b110010001111010 @
b101101001111010 >
b101101010001011 =
1'
#2020
0'
#2025
b1110 E
b110010001111110 @
b101101001111100 >
b101101010001001 =
1'
#2030
0'
#2035
b1111 E
b110010010000000 @
b101101001111101 >
b101101010001000 =
1'
#2040
0'
#2045
b10 A
b10000 E
b110010001111111 @
1'
#2050
0'
#2055
b0 A
b10001 E
bx @
b10 D
1'
#2060
0'
#2065
b101101001111101 "
b101101001111101 C
1!
b0 D
1'
#2070
0'
#2075
0!
b1001 2
r3.995371888554367e-06 3
r3.995371888554367e-06 .
r0.706939697265625 -
r0.7069357018937364 0
r0.78515625 ,
b101101001111101 4
1'
#2080
0'
#2085
1'
#2090
0'
#2095
1'
#2100
0'
#2105
b0 E
b0 @
b0 >
b100110110111010 =
b111000100010000 ?
b1 A
1+
b111000100010000 )
b111000100010000 6
b111000100010000 (
b1001 F
1'
#2110
0'
#2115
b1 D
b1 A
0+
1'
#2120
0'
#2125
b1 E
b110010010001000 @
b100110110111010 >
1'
#2130
0'
#2135
b10 E
b1001111111100001 @
b111010010010111 >
b10011011011101 =
1'
#2140
0'
#2145
b11 E
b1000000010000110 @
b110101011100000 >
b100010000000010 =
1'
#2150
0'
#2155
b100 E
b111000010011011 @
b110001001100000 >
b101000101011110 =
1'
#2160
0'
#2165
b101 E
b111100010011000 @
b110011101110101 >
b100101100111000 =
1'
#2170
0'
#2175
b110 E
b111010010011000 @
b110010100011100 >
b100111001110011 =
1'
#2180
0'
#2185
b111 E
b111001010011000 @
b110001111100011 >
b101000000000111 =
1'
#2190
0'
#2195
b1000 E
b111000110011000 @
b110001101000011 >
b101000011001110 =
1'
#2200
0'
#2205
b1001 E
b111000100011000 @
b110001011110011 >
b101000100110001 =
1'
#2210
0'
#2215
b1010 E
b111000011011000 @
b110001011001011 >
b101000101100010 =
1'
#2220
0'
#2225
b1011 E
b111000011111000 @
b110001011011111 >
b101000101001010 =
1'
#2230
0'
#2235
b1100 E
b111000100001000 @
b110001011101001 >
b101000100111110 =
1'
#2240
0'
#2245
b1101 E
b111000100010000 @
b110001011101110 >
b101000100111000 =
1'
#2250
0'
#2255
b1110 E
b111000100001100 @
b110001011101100 >
b101000100111011 =
1'
#2260
0'
#2265
b1111 E
b111000100001110 @
b110001011101101 >
b101000100111010 =
1'
#2270
0'
#2275
b10 A
b10000 E
b111000100001111 @
1'
#2280
0'
#2285
b0 A
b10001 E
bx @
b10 D
1'
#2290
0'
#2295
b110001011101101 "
b110001011101101 C
1!
b0 D
1'
#2300
0'
#2305
0!
b1010 2
r1.989304207461462e-05 3
r1.989304207461462e-05 .
r0.772857666015625 -
r0.7728377729735504 0
r0.88330078125 ,
b110001011101101 4
1'
#2310
0'
#2315
1'
#2320
0'
#2325
1'
#2330
0'
#2335
b0 E
b0 @
b0 >
b100110110111010 =
b111110110100000 ?
b1 A
1+
b111110110100000 )
b111110110100000 6
b111110110100000 (
b1010 F
1'
#2340
0'
#2345
b1 D
b1 A
0+
1'
#2350
0'
#2355
b1 E
b110010010001000 @
b100110110111010 >
1'
#2360
0'
#2365
b10 E
b1001111111100001 @
b111010010010111 >
b10011011011101 =
1'
#2370
0'
#2375
b11 E
b1000000010000110 @
b110101011100000 >
b100010000000010 =
1'
#2380
0'
#2385
b100 E
b111000010011011 @
b110001001100000 >
b101000101011110 =
1'
#2390
0'
#2395
b101 E
b111100010011000 @
b110011101110101 >
b100101100111000 =
1'
#2400
0'
#2405
b110 E
b111110010011000 @
b110100111001110 >
b100011111111101 =
1'
#2410
0'
#2415
b111 E
b111111010011000 @
b110101011101101 >
b100011001010110 =
1'
#2420
0'
#2425
b1000 E
b111110110011000 @
b110101001100001 >
b100011100101011 =
1'
#2430
0'
#2435
b1001 E
b111111000011000 @
b110101010101000 >
b100011011000001 =
1'
#2440
0'
#2445
b1010 E
b111110111011000 @
b110101010000101 >
b100011011110110 =
1'
#2450
0'
#2455
b1011 E
b111110110111000 @
b110101001110100 >
b100011100010000 =
1'
#2460
0'
#2465
b1100 E
b111110110101000 @
b110101001101100 >
b100011100011101 =
1'
#2470
0'
#2475
b1101 E
b111110110100000 @
b110101001101000 >
b100011100100011 =
1'
#2480
0'
#2485
b1110 E
b111110110011100 @
b110101001100110 >
b100011100100110 =
1'
#2490
0'
#2495
b1111 E
b111110110011110 @
b110101001100111 >
b100011100100101 =
1'
#2500
0'
#2505
b10 A
b10000 E
b111110110011111 @
1'
#2510
0'
#2515
b0 A
b10001 E
bx @
b10 D
1'
#2520
0'
#2525
b110101001100111 "
b110101001100111 C
1!
b0 D
1'
#2530
0'
#2535
0!
b1011 2
r-3.326388988200701e-05 3
r-3.326388988200701e-05 .
r0.831268310546875 -
r0.831301574436757 0
r0.9814453125 ,
b110101001100111 4
1'
#2540
0'
#2545
1'
#2550
0'
#2555
1'
#2560
0'
#2565
b0 E
b0 @
b0 >
b100110110111010 =
b1000101000110000 ?
b1 A
1+
b1000101000110000 )
b1000101000110000 6
b1000101000110000 (
b1011 F
1'
#2570
0'
#2575
b1 D
b1 A
0+
1'
#2580
0'
#2585
b1 E
b110010010001000 @
b100110110111010 >
1'
#2590
0'
#2595
b10 E
b1001111111100001 @
b111010010010111 >
b10011011011101 =
1'
#2600
0'
#2605
b11 E
b1000000010000110 @
b110101011100000 >
b100010000000010 =
1'
#2610
0'
#2615
b100 E
b1001000001110001 @
b111001101100000 >
b11011010100110 =
1'
#2620
0'
#2625
b101 E
b1000100001110100 @
b110111111110110 >
b11110111011100 =
1'
#2630
0'
#2635
b110 E
b1000110001110100 @
b111000111100100 >
b11101001011101 =
1'
#2640
0'
#2645
b111 E
b1000101001110100 @
b111000011111011 >
b11110000100100 =
1'
#2650
0'
#2655
b1000 E
b1000100101110100 @
b111000010000011 >
b11110100000101 =
1'
#2660
0'
#2665
b1001 E
b1000100111110100 @
b111000011000000 >
b11110010010101 =
1'
#2670
0'
#2675
b1010 E
b1000101000110100 @
b111000011011110 >
b11110001011101 =
1'
#2680
0'
#2685
b1011 E
b1000101000010100 @
b111000011001111 >
b11110001111001 =
1'
#2690
0'
#2695
b1100 E
b1000101000100100 @
b111000011010110 >
b11110001101011 =
1'
#2700
0'
#2705
b1101 E
b1000101000101100 @
b111000011011001 >
b11110001100100 =
1'
#2710
0'
#2715
b1110 E
b1000101000110000 @
b111000011011010 >
b11110001100001 =
1'
#2720
0'
#2725
b1111 E
b1000101000101110 @
b11110001100010 =
1'
#2730
0'
#2735
b10 A
b10000 E
b1000101000101111 @
1'
#2740
0'
#2745
b0 A
b10001 E
bx @
b10 D
1'
#2750
0'
#2755
b111000011011010 "
b111000011011010 C
1!
b0 D
1'
#2760
0'
#2765
0!
b1100 2
r-0.0001115823996857834 3
r-0.0001115823996857834 .
r0.88165283203125 -
r0.8817644144309358 0
r1.07958984375 ,
b111000011011010 4
1'
#2770
0'
#2775
1'
#2780
0'
#2785
1'
#2790
0'
#2795
b0 E
b0 @
b0 >
b100110110111010 =
b1001011011000000 ?
b1 A
1+
b1001011011000000 )
b1001011011000000 6
b1001011011000000 (
b1100 F
1'
#2800
0'
#2805
b1 D
b1 A
0+
1'
#2810
0'
#2815
b1 E
b110010010001000 @
b100110110111010 >
1'
#2820
0'
#2825
b10 E
b1001111111100001 @
b111010010010111 >
b10011011011101 =
1'
#2830
0'
#2835
b11 E
b1000000010000110 @
b110101011100000 >
b100010000000010 =
1'
#2840
0'
#2845
b100 E
b1001000001110001 @
b111001101100000 >
b11011010100110 =
1'
#2850
0'
#2855
b101 E
b1001100001101110 @
b111011011001010 >
b10111101110000 =
1'
#2860
0'
#2865
b110 E
b1001010001101110 @
b111010101001111 >
b11001100100110 =
1'
#2870
0'
#2875
b111 E
b1001011001101110 @
b111011000011011 >
b11000101010001 =
1'
#2880
0'
#2885
b1000 E
b1001011101101110 @
b111011001111101 >
b11000001100101 =
1'
#2890
0'
#2895
b1001 E
b1001011011101110 @
b111011001001101 >
b11000011011011 =
1'
#2900
0'
#2905
b1010 E
b1001011010101110 @
b111011000110101 >
b11000100010110 =
1'
#2910
0'
#2915
b1011 E
b1001011011001110 @
b111011001000001 >
b11000011111001 =
1'
#2920
0'
#2925
b1100 E
b1001011010111110 @
b111011000111011 >
b11000100000111 =
1'
#2930
0'
#2935
b1101 E
b1001011011000110 @
b111011000111110 >
b11000100000000 =
1'
#2940
0'
#2945
b1110 E
b1001011011000010 @
b111011000111101 >
b11000100000011 =
1'
#2950
0'
#2955
b1111 E
b1001011011000000 @
b11000100000100 =
1'
#2960
0'
#2965
b10 A
b10000 E
b1001011010111111 @
1'
#2970
0'
#2975
b0 A
b10001 E
bx @
b10 D
1'
#2980
0'
#2985
b111011000111101 "
b111011000111101 C
1!
b0 D
1'
#2990
0'
#2995
0!
b1101 2
r-4.035049020800763e-06 3
r-4.035049020800763e-06 .
r0.923736572265625 -
r0.9237406073146458 0
r1.177734375 ,
b111011000111101 4
1'
#3000
0'
#3005
1'
#3010
0'
#3015
1'
#3020
0'
#3025
b0 E
b0 @
b0 >
b100110110111010 =
b1010001101010000 ?
b1 A
1+
b1010001101010000 )
b1010001101010000 6
b1010001101010000 (
b1101 F
1'
#3030
0'
#3035
b1 D
b1 A
0+
1'
#3040
0'
#3045
b1 E
b110010010001000 @
b100110110111010 >
1'
#3050
0'
#3055
b10 E
b1001111111100001 @
b111010010010111 >
b10011011011101 =
1'
#3060
0'
#3065
b11 E
b1011111100111100 @
b111111001001110 >
b100110111000 =
1'
#3070
0'
#3075
b100 E
b1010111101010001 @
b111110100010111 >
b1100110000001 =
1'
#3080
0'
#3085
b101 E
b1010011101010100 @
b111101101111111 >
b10000101010010 =
1'
#3090
0'
#3095
b110 E
b1010001101010100 @
b111101001110101 >
b10010100101101 =
1'
#3100
0'
#3105
b111 E
b1010000101010100 @
b111100111100001 >
b10011100010110 =
1'
#3110
0'
#3115
b1000 E
b1010001001010100 @
b111101000101111 >
b10011000100011 =
1'
#3120
0'
#3125
b1001 E
b1010001011010100 @
b111101001010101 >
b10010110101001 =
1'
#3130
0'
#3135
b1010 E
b1010001100010100 @
b111101001100111 >
b10010101101100 =
1'
#3140
0'
#3145
b1011 E
b1010001100110100 @
b111101001110000 >
b10010101001110 =
1'
#3150
0'
#3155
b1100 E
b1010001101000100 @
b111101001110100 >
b10010100111111 =
1'
#3160
0'
#3165
b1101 E
b1010001101001100 @
b111101001110110 >
b10010100111000 =
1'
#3170
0'
#3175
b1110 E
b1010001101010000 @
b111101001110111 >
b10010100110101 =
1'
#3180
0'
#3185
b1111 E
b1010001101001110 @
b10010100110110 =
1'
#3190
0'
#3195
b10 A
b10000 E
b1010001101001111 @
1'
#3200
0'
#3205
b0 A
b10001 E
bx @
b10 D
1'
#3210
0'
#3215
b111101001110111 "
b111101001110111 C
1!
b0 D
1'
#3220
0'
#3225
0!
b1110 2
r-6.955640011951925e-05 3
r-6.955640011951925e-05 .
r0.956756591796875 -
r0.9568261481969945 0
r1.27587890625 ,
b111101001110111 4
1'
#3230
0'
#3235
1'
#3240
0'
#3245
1'
#3250
0'
